<?xml version="1.0" encoding="utf-8"?>
<!--
Copyright (C) 2016 Frederick S. Crisostomo

This program is free software: you can redistribute it and/or modify
it under the terms of the GNU General Public License as published by
the Free Software Foundation, either version 3 of the License, or
(at your option) any later version.

This program is distributed in the hope that it will be useful,
but WITHOUT ANY WARRANTY; without even the implied warranty of
MERCHANTABILITY or FITNESS FOR A PARTICULAR PURPOSE.  See the
GNU General Public License for more details.

You should have received a copy of the GNU General Public License
along with this program.  If not, see <http://www.gnu.org/licenses/>.
-->

<svg version="1.1" id="Calque_1" xmlns="http://www.w3.org/2000/svg" xmlns:xlink="http://www.w3.org/1999/xlink" x="0px" y="0px"
	 viewBox="0 0 100 100" enable-background="new 0 0 100 100" xml:space="preserve">
<g>
	<path fill-rule="evenodd" clip-rule="evenodd" fill="#1D1D1B" d="M71.731,86.95H52.172L39.134,100H26.085V86.95H2.183V17.391
		L8.705,0h89.112v60.874L71.731,86.95z M89.125,56.517V8.69H17.393v63.046h19.573v13.032L50,71.737h23.906L89.125,56.517z"/>
	<g id="Solo_Glitch_136_">
		<g>
			<path fill="#1D1D1B" d="M65.213,26.091v26.085h8.693V26.091H65.213z M41.305,52.176H50V26.091h-8.695V52.176z"/>
		</g>
	</g>
</g>
</svg>
